11 Data wrangling | Let’s program in R
…
# print out the average time of arrival delay
# for departing flights to airports
# LAX, JFK and LGA on different days of the week
# name the new column 'MeanArrDelay'
# ignore rows with NA values
# sort the result by descending average delay time
filter(hflights, Dest %in% c('LAX', 'JFK', 'LGA')) %>% group_by(DayOfWeek, Dest) %>%
summarise(MeanArrDelay = round(mean(ArrDelay,
         na.rm = T), 2)) %>%
         ungroup() %>% arrange(desc(MeanArrDelay))

## `summarise()` has grouped output by 'DayOfWeek'. You can override using the
## `.groups` argument.

## # A tibble: 21 × 3
##    DayOfWeek Dest  MeanArrDelay
##        <int> <chr>        <dbl>
##  1         4 LGA          21.3 
##  2         4 JFK          17.2 
##  3         5 LGA          13.6 
##  4         1 LGA          13.5 
##  5         7 JFK          10.8 
##  6         1 LAX          10.7 
##  7         3 LGA          10.5 
##  8         4 LAX          10.3 
##  9         2 LGA           9.85
## 10         6 JFK           9.76
## # … with 11 more rows
…
